pm566-a3
…
The most frequent bigrams are covid 19, prostate cancer, and pre eclampsia.

Calculate the TF-IDF value for each word-search term combination (here you want the search term to be the "document"). What are the 5 tokens from each search term with the highest TF-IDF value? How are the results different from the answers you got in question 1?

pubmed %>%
  unnest_tokens(output = word, input = abstract) %>%
  count(word, term) %>%
  bind_tf_idf(word, term, n) %>%
  arrange(desc(tf_idf)) %>% 
  group_by(term) %>%
  top_n(5,tf_idf) %>%
  arrange(desc(term))

# A tibble: 25 × 6
# Groups:   term [5]
   word          term                n      tf   idf  tf_idf
   <chr>         <chr>           <int>   <dbl> <dbl>   <dbl>
 1 prostate      prostate cancer  3832 0.0312  1.61  0.0502 
 2 androgen      prostate cancer   305 0.00248 1.61  0.00400
 3 psa           prostate cancer   282 0.00230 1.61  0.00369
 4 prostatectomy prostate cancer   215 0.00175 1.61  0.00282
 5 castration    prostate cancer   148 0.00120 1.61  0.00194
 6 eclampsia     preeclampsia     2005 0.0143  1.61  0.0230 
 7 preeclampsia  preeclampsia     1863 0.0133  1.61  0.0214 
 8 pregnancy     preeclampsia      969 0.00690 0.511 0.00353
 9 maternal      preeclampsia      797 0.00568 0.511 0.00290
10 gestational   preeclampsia      191 0.00136 1.61  0.00219
# ℹ 15 more rows
…
