pm566-lab6
…
1. what specialties do we have

mt_samples %>%
  count(medical_specialty, sort = TRUE)

# A tibble: 40 × 2
   medical_specialty                 n
   <chr>                         <int>
 1 Surgery                        1103
 2 Consult - History and Phy.      516
 3 Cardiovascular / Pulmonary      372
 4 Orthopedic                      355
 5 Radiology                       273
 6 General Medicine                259
 7 Gastroenterology                230
 8 Neurology                       223
 9 SOAP / Chart / Progress Notes   166
10 Obstetrics / Gynecology         160
# ℹ 30 more rows
…
5. words after and before ‘medical’

library(tidyr)
mt_samples %>%
  unnest_ngrams(ngram, transcription, n = 2) %>%
  separate(ngram, into = c("w1", "w2"), sep = " ") %>%
  select(w1, w2)

# A tibble: 2,398,638 × 2
   w1         w2       
   <chr>      <chr>    
 1 subjective this     
 2 this       23       
 3 23         year     
 4 year       old      
 5 old        white    
 6 white      female   
 7 female     presents 
 8 presents   with     
 9 with       complaint
10 complaint  of       
# ℹ 2,398,628 more rows

  mt_samples %>%
  unnest_ngrams(ngram, transcription, n = 2) %>%
  separate(ngram, into = c("w1", "w2"), sep = " ") %>%
  select(w1, w2) %>%
  filter(w1 == "medical") %>%
  count(w2, sort = TRUE)

# A tibble: 97 × 2
   w2             n
   <chr>      <int>
 1 history     1223
 2 center        94
 3 problems      93
 4 therapy       76
 5 records       60
 6 attention     39
 7 management    35
 8 floor         31
 9 record        29
10 treatment     29
# ℹ 87 more rows

  mt_samples %>%
  unnest_ngrams(ngram, transcription, n = 2) %>%
  separate(ngram, into = c("w1", "w2"), sep = " ") %>%
  select(w1, w2) %>%
  filter(w2 == "medical") %>%
  count(w1, sort = TRUE)

# A tibble: 180 × 2
   w1           n
   <chr>    <int>
 1 past      1113
 2 the         88
 3 to          56
 4 multiple    42
 5 other       40
 6 family      38
 7 his         32
 8 general     28
 9 known       24
10 maximum     24
# ℹ 170 more rows

6. Which words are most used in each of the specialties

mt_samples %>%
  unnest_tokens(word, transcription) %>%
  group_by(medical_specialty) %>%
  count(word, sort = TRUE) %>%
  filter(!(word %in% stop_words$word) & !grepl("^[0-9]+$", word)) %>%
  top_n(5) %>%
  arrange(medical_specialty, n)

Selecting by n

# A tibble: 210 × 3
# Groups:   medical_specialty [40]
   medical_specialty    word          n
   <chr>                <chr>     <int>
 1 Allergy / Immunology nasal        13
 2 Allergy / Immunology past         13
 3 Allergy / Immunology allergies    21
 4 Allergy / Immunology patient      22
 5 Allergy / Immunology noted        23
 6 Allergy / Immunology history      38
 7 Autopsy              body         40
 8 Autopsy              anterior     47
 9 Autopsy              neck         55
10 Autopsy              inch         59
# ℹ 200 more rows

7. interesting ngram

mt_samples %>%
  unnest_ngrams(ngram, transcription, n = 6) %>%
  count(ngram, sort = TRUE) %>%
  top_n(20)

Selecting by n

# A tibble: 21 × 2
   ngram                                        n
   <chr>                                    <int>
 1 the patient tolerated the procedure well   761
 2 prepped and draped in the usual            673
 3 the patient was taken to the               592
 4 the patient was brought to the             519
 5 history of present illness the patient     500
 6 was taken to the operating room            468
 7 was prepped and draped in the              457
 8 patient was taken to the operating         428
 9 of present illness the patient is          423
10 and draped in the usual sterile            401
# ℹ 11 more rows
…
